{"frames": {

"attack-0.png":
{
	"frame": {"x":97,"y":192,"w":33,"h":39},
	"rotated": true,
	"trimmed": true,
	"spriteSourceSize": {"x":59,"y":59,"w":33,"h":39},
	"sourceSize": {"w":150,"h":150}
},
"attack-1.png":
{
	"frame": {"x":97,"y":154,"w":39,"h":36},
	"rotated": false,
	"trimmed": true,
	"spriteSourceSize": {"x":56,"y":59,"w":39,"h":36},
	"sourceSize": {"w":150,"h":150}
},
"attack-2.png":
{
	"frame": {"x":143,"y":248,"w":42,"h":31},
	"rotated": false,
	"trimmed": true,
	"spriteSourceSize": {"x":55,"y":64,"w":42,"h":31},
	"sourceSize": {"w":150,"h":150}
},
"attack-3.png":
{
	"frame": {"x":1,"y":228,"w":60,"h":44},
	"rotated": true,
	"trimmed": true,
	"spriteSourceSize": {"x":45,"y":61,"w":60,"h":44},
	"sourceSize": {"w":150,"h":150}
},
"attack-4.png":
{
	"frame": {"x":1,"y":114,"w":112,"h":94},
	"rotated": true,
	"trimmed": true,
	"spriteSourceSize": {"x":21,"y":25,"w":112,"h":94},
	"sourceSize": {"w":150,"h":150}
},
"attack-5.png":
{
	"frame": {"x":1,"y":290,"w":51,"h":34},
	"rotated": true,
	"trimmed": true,
	"spriteSourceSize": {"x":51,"y":62,"w":51,"h":34},
	"sourceSize": {"w":150,"h":150}
},
"attack-6.png":
{
	"frame": {"x":138,"y":1,"w":111,"h":98},
	"rotated": true,
	"trimmed": true,
	"spriteSourceSize": {"x":18,"y":21,"w":111,"h":98},
	"sourceSize": {"w":150,"h":150}
},
"attack-7.png":
{
	"frame": {"x":190,"y":114,"w":49,"h":34},
	"rotated": false,
	"trimmed": true,
	"spriteSourceSize": {"x":52,"y":62,"w":49,"h":34},
	"sourceSize": {"w":150,"h":150}
},
"attack-8.png":
{
	"frame": {"x":1,"y":1,"w":135,"h":111},
	"rotated": false,
	"trimmed": true,
	"spriteSourceSize": {"x":12,"y":25,"w":135,"h":111},
	"sourceSize": {"w":150,"h":150}
},
"attack-9.png":
{
	"frame": {"x":97,"y":154,"w":39,"h":36},
	"rotated": false,
	"trimmed": true,
	"spriteSourceSize": {"x":56,"y":59,"w":39,"h":36},
	"sourceSize": {"w":150,"h":150}
},
"dead-0.png":
{
	"frame": {"x":97,"y":192,"w":33,"h":39},
	"rotated": true,
	"trimmed": true,
	"spriteSourceSize": {"x":9,"y":9,"w":33,"h":39},
	"sourceSize": {"w":50,"h":50}
},
"dead-1.png":
{
	"frame": {"x":138,"y":299,"w":41,"h":38},
	"rotated": true,
	"trimmed": true,
	"spriteSourceSize": {"x":6,"y":9,"w":41,"h":38},
	"sourceSize": {"w":50,"h":50}
},
"dead-2.png":
{
	"frame": {"x":187,"y":256,"w":45,"h":41},
	"rotated": false,
	"trimmed": true,
	"spriteSourceSize": {"x":2,"y":6,"w":45,"h":41},
	"sourceSize": {"w":50,"h":50}
},
"dead-3.png":
{
	"frame": {"x":138,"y":163,"w":47,"h":47},
	"rotated": false,
	"trimmed": true,
	"spriteSourceSize": {"x":0,"y":1,"w":47,"h":47},
	"sourceSize": {"w":50,"h":50}
},
"dead-4.png":
{
	"frame": {"x":88,"y":280,"w":50,"h":48},
	"rotated": true,
	"trimmed": true,
	"spriteSourceSize": {"x":0,"y":1,"w":50,"h":48},
	"sourceSize": {"w":50,"h":50}
},
"dead-5.png":
{
	"frame": {"x":138,"y":114,"w":50,"h":47},
	"rotated": false,
	"trimmed": true,
	"spriteSourceSize": {"x":0,"y":2,"w":50,"h":47},
	"sourceSize": {"w":50,"h":50}
},
"dead-6.png":
{
	"frame": {"x":37,"y":290,"w":50,"h":49},
	"rotated": true,
	"trimmed": true,
	"spriteSourceSize": {"x":0,"y":0,"w":50,"h":49},
	"sourceSize": {"w":50,"h":50}
},
"dead-7.png":
{
	"frame": {"x":47,"y":228,"w":48,"h":50},
	"rotated": false,
	"trimmed": true,
	"spriteSourceSize": {"x":2,"y":0,"w":48,"h":50},
	"sourceSize": {"w":50,"h":50}
},
"dead-8.png":
{
	"frame": {"x":97,"y":227,"w":47,"h":44},
	"rotated": true,
	"trimmed": true,
	"spriteSourceSize": {"x":3,"y":6,"w":47,"h":44},
	"sourceSize": {"w":50,"h":50}
},
"dead-9.png":
{
	"frame": {"x":187,"y":177,"w":47,"h":44},
	"rotated": false,
	"trimmed": true,
	"spriteSourceSize": {"x":3,"y":6,"w":47,"h":44},
	"sourceSize": {"w":50,"h":50}
},
"move-0.png":
{
	"frame": {"x":97,"y":192,"w":33,"h":39},
	"rotated": true,
	"trimmed": true,
	"spriteSourceSize": {"x":9,"y":9,"w":33,"h":39},
	"sourceSize": {"w":50,"h":50}
},
"move-1.png":
{
	"frame": {"x":97,"y":114,"w":38,"h":39},
	"rotated": true,
	"trimmed": true,
	"spriteSourceSize": {"x":6,"y":9,"w":38,"h":39},
	"sourceSize": {"w":50,"h":50}
},
"move-2.png":
{
	"frame": {"x":143,"y":212,"w":42,"h":34},
	"rotated": false,
	"trimmed": true,
	"spriteSourceSize": {"x":5,"y":14,"w":42,"h":34},
	"sourceSize": {"w":50,"h":50}
},
"move-3.png":
{
	"frame": {"x":187,"y":223,"w":46,"h":31},
	"rotated": false,
	"trimmed": true,
	"spriteSourceSize": {"x":3,"y":17,"w":46,"h":31},
	"sourceSize": {"w":50,"h":50}
},
"move-4.png":
{
	"frame": {"x":143,"y":212,"w":42,"h":34},
	"rotated": false,
	"trimmed": true,
	"spriteSourceSize": {"x":5,"y":14,"w":42,"h":34},
	"sourceSize": {"w":50,"h":50}
},
"move-5.png":
{
	"frame": {"x":97,"y":114,"w":38,"h":39},
	"rotated": true,
	"trimmed": true,
	"spriteSourceSize": {"x":6,"y":9,"w":38,"h":39},
	"sourceSize": {"w":50,"h":50}
},
"move-6.png":
{
	"frame": {"x":178,"y":299,"w":29,"h":44},
	"rotated": true,
	"trimmed": true,
	"spriteSourceSize": {"x":11,"y":4,"w":29,"h":44},
	"sourceSize": {"w":50,"h":50}
},
"move-7.png":
{
	"frame": {"x":190,"y":150,"w":25,"h":48},
	"rotated": true,
	"trimmed": true,
	"spriteSourceSize": {"x":13,"y":0,"w":25,"h":48},
	"sourceSize": {"w":50,"h":50}
},
"move-8.png":
{
	"frame": {"x":178,"y":299,"w":29,"h":44},
	"rotated": true,
	"trimmed": true,
	"spriteSourceSize": {"x":11,"y":4,"w":29,"h":44},
	"sourceSize": {"w":50,"h":50}
},
"move-9.png":
{
	"frame": {"x":97,"y":114,"w":38,"h":39},
	"rotated": true,
	"trimmed": true,
	"spriteSourceSize": {"x":6,"y":9,"w":38,"h":39},
	"sourceSize": {"w":50,"h":50}
}},
"animations": {
	"attack": ["attack-0.png","attack-1.png","attack-2.png","attack-3.png","attack-4.png","attack-5.png","attack-6.png","attack-7.png","attack-8.png","attack-9.png"],
	"dead": ["dead-0.png","dead-1.png","dead-2.png","dead-3.png","dead-4.png","dead-5.png","dead-6.png","dead-7.png","dead-8.png","dead-9.png"],
	"move": ["move-0.png","move-1.png","move-2.png","move-3.png","move-4.png","move-5.png","move-6.png","move-7.png","move-8.png","move-9.png"]
},
"meta": {
	"app": "https://www.codeandweb.com/texturepacker",
	"version": "1.0",
	"image": "medusa.png",
	"format": "RGBA8888",
	"size": {"w":240,"h":342},
	"scale": "1",
	"smartupdate": "$TexturePacker:SmartUpdate:7b1b136abd4cadb20beb61eb1079c823:dd4e41c7dab5df71e21ace3f02f43ff5:ff4a06ef362a7a6b9ae531bc52214915$"
}
}
