{"frames": {

"light-0.png":
{
	"frame": {"x":343,"y":465,"w":145,"h":210},
	"rotated": false,
	"trimmed": true,
	"spriteSourceSize": {"x":25,"y":14,"w":145,"h":210},
	"sourceSize": {"w":195,"h":340}
},
"light-1.png":
{
	"frame": {"x":343,"y":1,"w":172,"h":230},
	"rotated": false,
	"trimmed": true,
	"spriteSourceSize": {"x":17,"y":14,"w":172,"h":230},
	"sourceSize": {"w":195,"h":340}
},
"light-2.png":
{
	"frame": {"x":1,"y":572,"w":178,"h":322},
	"rotated": true,
	"trimmed": true,
	"spriteSourceSize": {"x":17,"y":14,"w":178,"h":322},
	"sourceSize": {"w":195,"h":340}
},
"light-3.png":
{
	"frame": {"x":1,"y":198,"w":185,"h":340},
	"rotated": true,
	"trimmed": true,
	"spriteSourceSize": {"x":0,"y":0,"w":185,"h":340},
	"sourceSize": {"w":195,"h":340}
},
"light-4.png":
{
	"frame": {"x":1,"y":1,"w":195,"h":340},
	"rotated": true,
	"trimmed": false,
	"spriteSourceSize": {"x":0,"y":0,"w":195,"h":340},
	"sourceSize": {"w":195,"h":340}
},
"light-5.png":
{
	"frame": {"x":1,"y":385,"w":185,"h":340},
	"rotated": true,
	"trimmed": true,
	"spriteSourceSize": {"x":0,"y":0,"w":185,"h":340},
	"sourceSize": {"w":195,"h":340}
},
"light-6.png":
{
	"frame": {"x":148,"y":752,"w":178,"h":322},
	"rotated": true,
	"trimmed": true,
	"spriteSourceSize": {"x":17,"y":14,"w":178,"h":322},
	"sourceSize": {"w":195,"h":340}
},
"light-7.png":
{
	"frame": {"x":343,"y":233,"w":172,"h":230},
	"rotated": false,
	"trimmed": true,
	"spriteSourceSize": {"x":17,"y":14,"w":172,"h":230},
	"sourceSize": {"w":195,"h":340}
},
"light-8.png":
{
	"frame": {"x":1,"y":752,"w":145,"h":210},
	"rotated": false,
	"trimmed": true,
	"spriteSourceSize": {"x":25,"y":14,"w":145,"h":210},
	"sourceSize": {"w":195,"h":340}
}},
"animations": {
	"light": ["light-0.png","light-1.png","light-2.png","light-3.png","light-4.png","light-5.png","light-6.png","light-7.png","light-8.png"]
},
"meta": {
	"app": "https://www.codeandweb.com/texturepacker",
	"version": "1.0",
	"image": "light.png",
	"format": "RGBA8888",
	"size": {"w":516,"h":963},
	"scale": "1",
	"smartupdate": "$TexturePacker:SmartUpdate:e2c4d12a254b109f01ce48171773b7cd:3cc4d038626db9ce67c7c20d67096d74:667de6b72f41f892496969469aea341b$"
}
}
