{"frames": {

"kaltar.png":
{
	"frame": {"x":1,"y":1,"w":140,"h":155},
	"rotated": false,
	"trimmed": false,
	"spriteSourceSize": {"x":0,"y":0,"w":140,"h":155},
	"sourceSize": {"w":140,"h":155}
},
"kaltarglow.png":
{
	"frame": {"x":143,"y":1,"w":140,"h":155},
	"rotated": false,
	"trimmed": false,
	"spriteSourceSize": {"x":0,"y":0,"w":140,"h":155},
	"sourceSize": {"w":140,"h":155}
}},
"animations": {
	"idle": ["kaltar.png"],
	"glow": ["kaltarglow.png"]
},
"meta": {
	"app": "https://www.codeandweb.com/texturepacker",
	"version": "1.0",
	"image": "altar.png",
	"format": "RGBA8888",
	"size": {"w":284,"h":157},
	"scale": "1",
	"smartupdate": "$TexturePacker:SmartUpdate:55b8c14fbbb412ef0ab6328162e2746f:250aa06f1753f92aed6745f110787952:a66e5ac2231e9c132207315bd2c73e8c$"
}
}
