{"frames": {

"octoE":
{
	"frame": {"x":0,"y":0,"w":50,"h":50},
	"rotated": false,
	"trimmed": false,
	"spriteSourceSize": {"x":0,"y":0,"w":50,"h":50},
	"sourceSize": {"w":50,"h":50}
},
"octoEdead":
{
	"frame": {"x":50,"y":0,"w":50,"h":50},
	"rotated": false,
	"trimmed": false,
	"spriteSourceSize": {"x":0,"y":0,"w":50,"h":50},
	"sourceSize": {"w":50,"h":50}
}},
"animations": {
	"move": ["octoE"],
	"dead": ["octoEdead"]
},
"meta": {
	"app": "https://www.codeandweb.com/texturepacker",
	"version": "1.0",
	"image": "octopus.png",
	"format": "RGBA8888",
	"size": {"w":100,"h":50},
	"scale": "1",
	"smartupdate": "$TexturePacker:SmartUpdate:b26c25382ceb65917d8cd008ef7ad986:d28ab32ee3d8cfa93366cd1d1bc70d24:1416048eb93d3d1a048d5c8e10d771a7$"
}
}
